﻿2017-12-07T12:08:34.0037219+05:30;VSTestExecutionThread;Info;SpecFlow+Runner execution started
2017-12-07T12:08:34.2242890+05:30;VSTestExecutionThread;Info;SpecRun Evaluation Mode: Please purchase at http://www.specflow.org/plus to remove test execution delay.
2017-12-07T12:08:34.2254006+05:30;VSTestExecutionThread;Info;SpecRun: running tests in C:\Specflow_Automation\Automation_Elluminate\Automation_Elluminate\bin\Debug\Automation_Elluminate.dll
2017-12-07T12:08:34.2261668+05:30;VSTestExecutionThread;Info;Profile: Default
2017-12-07T12:08:47.3420831+05:30;Thread#12;Info;Discovering target: Default
2017-12-07T12:08:47.3432193+05:30;Thread#12;Info;Discovering tests from assembly: C:\Specflow_Automation\Automation_Elluminate\Automation_Elluminate\bin\Debug\Automation_Elluminate.dll
Appdomain Disposed
Test Suite Dump
#0: Automation_Elluminate/Default - 
#1: Default - 
#2: Automation_Elluminate - 
#30: Elluminate_Export - 
#36: Elluminate_Export_Schedule_SmokeTest - TestAssembly:Automation_Elluminate/Feature:Elluminate_Export/Scenario:Elluminate_Export_Schedule_SmokeTest
End: Test Suite Dump
Thread#0:Scheduler: get next test for thread 0
Thread#:Scheduler: testitem #36 from normal test queue 
Thread#0:Scheduler: considering testitem #36 for thread 0
Thread#0:TestItem#36:testItemMatchesCurrentTestThread:UnSpecific
Thread#0:TestItem#36:runsOnOneOtherThreadSpecific:False
Thread#0:TestItem#36:runsOnOneOtherThreadUnspecific:False
Thread#0:Scheduler: using testitem #36 for thread 0
Thread#0:Scheduler: Test #36 is scheduled for thread
Thread#0:Scheduler: with testItemExecutionIndex 0
Thread #0: creating new test thread executor for Automation_Elluminate, Version=1.0.0.0, Culture=neutral, PublicKeyToken=null (target: Default)
Loading SpecRun type 'TechTalk.SpecRun.Framework.TestAssemblyExecutor' from: C:\Users\pchalkapure\AppData\Local\Temp\VisualStudioTestExplorerExtensions\SpecRun.Runner.1.6.3\tools\TechTalk.SpecRun.Framework.Executor.dll
Thread#0: Test #36/0 is started on thread #0
Thread#0:T:-> Using app.config
Thread#0:T:BeforeFeature
Thread#0:T:Chrome driver is intialized 
Thread#0:T:BeforeTestRun
Thread#0:B:Given We are at the Sign In Page
Thread#0:T:BeforeStep
Thread#0:T:Open Url https://testc.eclinicalsol.com
Thread#0:T:done: CommonScenariosSteps.GivenWeAreAtTheSignInPage() (6.9s)
Thread#0:B:And I login "AutoTesting", "Auto@403" and "SmokeTest, Auto"
Thread#0:T:BeforeStep
Thread#0:T:waitforElementPresent function - Element is present : By.Id: UserName
Thread#0:T:ClearText action perform on element ID^UserName
Thread#0:T:waitforElementPresent function - Element is present : By.Id: UserName
Thread#0:T:waitforElementPresent function - Element is present : By.Id: Password
Thread#0:T:ClearText action perform on element ID^Password
Thread#0:T:waitforElementPresent function - Element is present : By.Id: Password
Thread#0:T:waitforElementPresent function - Element is present : By.Id: logon-submit
Thread#0:T:CLick action perform on element ID^logon-submit
Thread#0:T:Open Url https://testc.eclinicalsol.com
Thread#0:T:waitforElementPresent function - Element is present : By.XPath: //Ul[@class='nav navbar-nav navbar-right']/li[1]
Thread#0:T:GetAttributeValue of element XPATH^//Ul[@class='nav navbar-nav navbar-right']/li[1]
Thread#0:T:VerifyAttributeValue on element XPATH^//Ul[@class='nav navbar-nav navbar-right']/li[1] : Expected value =SmokeTest, Auto Actual value =SmokeTest, Auto
Thread#0:T:done: CommonScenariosSteps.GivenILoginAnd("AutoTesting", "Auto@403", "SmokeTest, Auto") (4.9s)
Thread#0:B:Given I choose "AutoStudy" Study from studies list.
Thread#0:T:BeforeStep
Thread#0:T:waitforElementPresent function - Element is present : By.XPath: //div[@title='Tile View']
Thread#0:T:CLick action perform on element XPATH^//div[@title='Tile View']
Thread#0:T:waitforElementPresent function - Element is present : By.Id: search
Thread#0:T:ClearText action perform on element ID^search
Thread#0:T:waitforElementPresent function - Element is present : By.Id: search
Thread#0:T:waitforElementPresent function - Element is present : By.XPath: //button[@type='submit']
Thread#0:T:CLick action perform on element XPATH^//button[@type='submit']
Thread#0:T:VerifyElementPresent function executed successfully : XPATH^//div[@id='#snapgridtileview']/div[1]//h1/a[contains(text(),'AutoStudy')]
Thread#0:T:waitforElementPresent function - Element is present : By.XPath: //div[@id='#snapgridtileview']/div[1]//h1/a[contains(text(),'AutoStudy')]
Thread#0:T:CLick action perform on element XPATH^//div[@id='#snapgridtileview']/div[1]//h1/a[contains(text(),'AutoStudy')]
Thread#0:T:done: MapperSteps.GivenIChooseStudyFromStudiesList_("AutoStudy") (11.6s)
Thread#0:B:When I select Export Tab from the menu
Thread#0:T:BeforeStep
Thread#0:T:waitforElementPresent function - Element is present : By.XPath: //a[@data-name='exporter']
Thread#0:T:CLick action perform on element XPATH^//a[@data-name='exporter']
Thread#0:T:VerifyElementPresent function executed successfully : XPATH^//select[@multiple='multiple']/option[2]
Thread#0:T:done: Elluminate_ExportSteps.WhenISelectExportTabFromTheMenu() (5.2s)
Thread#0:B:And I Select DataStore is "Clinical"
Thread#0:T:BeforeStep
Thread#0:T:waitforElementPresent function - Element is present : By.XPath: //option[text()='Clinical']
Thread#0:T:Page load state is true
Thread#0:T:Page load state is true
Thread#0:T:Click action perform on element XPATH^//option[text()='Clinical']
Thread#0:T:done: Elluminate_ExportSteps.WhenISelectDataStoreIs("Clinical") (0.1s)
Thread#0:B:And I Select Available Domains
Thread#0:T:BeforeStep
Thread#0:T:waitforElementPresent function - Element is present : By.XPath: //select[@multiple='multiple']/option[2]
Thread#0:T:CLick action perform on element XPATH^//select[@multiple='multiple']/option[2]
Thread#0:T:done: Elluminate_ExportSteps.WhenISelectAvailableDomains() (2.1s)
Thread#0:B:And I Schedule Task for Export process
Thread#0:T:BeforeStep
Thread#0:T:waitforElementPresent function - Element is present : By.XPath: //button[contains(text(),'Schedule')]
Thread#0:T:CLick action perform on element XPATH^//button[contains(text(),'Schedule')]
Thread#0:T:waitforElementPresent function - Element is present : By.Id: taskwizard-next
Thread#0:T:CLick action perform on element ID^taskwizard-next
Thread#0:T:waitforElementPresent function - Element is present : By.Id: StartDateTime
Thread#0:T:GetAttributeValue of element ID^StartDateTime
Thread#0:T:waitforElementPresent function - Element is present : By.Id: StartDateTime
Thread#0:T:ClearText action perform on element ID^StartDateTime
Thread#0:T:waitforElementPresent function - Element is present : By.Id: StartDateTime
Thread#0:T:ClearText action perform on element ID^StartDateTime
Thread#0:T:waitforElementPresent function - Element is present : By.Id: StartDateTime
Thread#0:T:waitforElementPresent function - Element is present : By.Id: taskwizard-next
Thread#0:T:CLick action perform on element ID^taskwizard-next
Thread#0:T:waitforElementPresent function - Element is present : By.Id: taskwizard-next
Thread#0:T:CLick action perform on element ID^taskwizard-next
Thread#0:T:waitforElementPresent function - Element is present : By.XPath: //div[@id='task-wizard-pane']//tr[1]/td[2]/div
Thread#0:T:waitforElementPresent function - Element is present : By.Id: taskwizard-close
Thread#0:T:CLick action perform on element ID^taskwizard-close
Thread#0:T:done: Elluminate_ExportSteps.WhenIScheduleTaskForExportProcess() (12.0s)
Thread#0:B:Given Select Task tab
Thread#0:T:BeforeStep
Thread#0:T:waitforElementPresent function - Element is present : By.XPath: //div[@class='fresh-tilled-soil']/nav/a[8]
Thread#0:T:CLick action perform on element XPATH^//div[@class='fresh-tilled-soil']/nav/a[8]
Thread#0:T:done: Elluminate_TaskSchedule_StudyLevelSteps.GivenSelectTaskTab() (3.1s)
Thread#0:B:Then Verify Schedule Export Added to task list
Thread#0:T:BeforeStep
Thread#0:T:done: Elluminate_ExportSteps.ThenVerifyScheduleExportAddedToTaskList() (0.1s)
Thread#0:B:And Verify Schedule process is executed successfully
Thread#0:T:BeforeStep
Thread#0:T:VerifyElementPresent function executed successfully : XPATH^//div[@class='t-grid-content']/table/tbody/tr
Thread#0:T:VerifyElementPresent function failed due to  : XPATH^//div[@class='t-grid-content']/table/tbody/tr[1]/td[4][text()='Never']
Thread#0:T:Verify Schedule process is not Executed 
Thread#0:T: Task name is :Export_AutoStudy_Domains (13)
Thread#0:T:DeleteScheduleTask failed due to delete before and after count not matching 
Thread#0:T:Before COunt :1
Thread#0:T: afterCount1
Thread#0:T:error: Object reference not set to an instance of an object.
Thread#0:Scheduler: get next test for thread 0
Thread#:Scheduler: at the end of normal test queue
Thread#0:Scheduler: enumerator for thread is at end
Thread#0:Scheduler: No more tests for thread
Thread#0:T:AfterFeature
Thread#0:T:AfterTestRun
Thread#0: Test #36/0 is finished on thread #0 as Failed within 113.0434345 seconds
Appdomain Disposed
Thread#-1:Scheduler: get next test for thread -1
Thread#:Scheduler: at the end of normal test queue
Thread#-1:Scheduler: enumerator for thread is at end
Total: 1
Succeeded: 0
Ignored: 0
Pending: 0
Skipped: 0
Failed: 1
