﻿2017-12-05T17:46:11.3862796+05:30;VSTestExecutionThread;Info;SpecFlow+Runner execution started
2017-12-05T17:46:11.5153684+05:30;VSTestExecutionThread;Info;SpecRun Evaluation Mode: Please purchase at http://www.specflow.org/plus to remove test execution delay.
2017-12-05T17:46:11.5163711+05:30;VSTestExecutionThread;Info;SpecRun: running tests in C:\Specflow_Automation\Automation_Elluminate\Automation_Elluminate\bin\Debug\Automation_Elluminate.dll
2017-12-05T17:46:11.5173708+05:30;VSTestExecutionThread;Info;Profile: Default
2017-12-05T17:46:20.6395937+05:30;VSTestExecutionThread;Info;Discovering target: Default
2017-12-05T17:46:20.6405820+05:30;VSTestExecutionThread;Info;Discovering tests from assembly: C:\Specflow_Automation\Automation_Elluminate\Automation_Elluminate\bin\Debug\Automation_Elluminate.dll
2017-12-05T17:47:34.5740101+05:30;VSTestExecutionThread;Info;Log file: file:///C:\Specflow_Automation\Automation_Elluminate\TestResults\Automation_Elluminate_Default_2017-12-05T174611.log
2017-12-05T17:47:34.5750108+05:30;VSTestExecutionThread;Info;SpecFlow+Runner execution finished
2017-12-05T17:47:45.1341146+05:30;VSTestExecutionThread;Info;SpecFlow+Runner execution started
2017-12-05T17:47:45.1461201+05:30;VSTestExecutionThread;Info;SpecRun Evaluation Mode: Please purchase at http://www.specflow.org/plus to remove test execution delay.
2017-12-05T17:47:45.1471223+05:30;VSTestExecutionThread;Info;SpecRun: running tests in C:\Specflow_Automation\Automation_Elluminate\Automation_Elluminate\bin\Debug\Automation_Elluminate.dll
2017-12-05T17:47:45.1481251+05:30;VSTestExecutionThread;Info;Profile: Default
2017-12-05T17:47:51.1519945+05:30;Thread#20;Info;Discovering target: Default
2017-12-05T17:47:51.1540042+05:30;Thread#20;Info;Discovering tests from assembly: C:\Specflow_Automation\Automation_Elluminate\Automation_Elluminate\bin\Debug\Automation_Elluminate.dll
Appdomain Disposed
Test Suite Dump
#0: Automation_Elluminate/Default - 
#1: Default - 
#2: Automation_Elluminate - 
#60: Elluminate_Sanpshot - 
#61: Elluminate_Snapshot_Add_SmokeTest - TestAssembly:Automation_Elluminate/Feature:Elluminate_Sanpshot/Scenario:Elluminate_Snapshot_Add_SmokeTest
End: Test Suite Dump
Thread#0:Scheduler: get next test for thread 0
Thread#:Scheduler: testitem #61 from normal test queue 
Thread#0:Scheduler: considering testitem #61 for thread 0
Thread#0:TestItem#61:testItemMatchesCurrentTestThread:UnSpecific
Thread#0:TestItem#61:runsOnOneOtherThreadSpecific:False
Thread#0:TestItem#61:runsOnOneOtherThreadUnspecific:False
Thread#0:Scheduler: using testitem #61 for thread 0
Thread#0:Scheduler: Test #61 is scheduled for thread
Thread#0:Scheduler: with testItemExecutionIndex 0
Thread #0: creating new test thread executor for Automation_Elluminate, Version=1.0.0.0, Culture=neutral, PublicKeyToken=null (target: Default)
Loading SpecRun type 'TechTalk.SpecRun.Framework.TestAssemblyExecutor' from: C:\Users\pchalkapure\AppData\Local\Temp\VisualStudioTestExplorerExtensions\SpecRun.Runner.1.6.3\tools\TechTalk.SpecRun.Framework.Executor.dll
Thread#0: Test #61/0 is started on thread #0
Thread#0:T:-> Using app.config
Thread#0:T:BeforeFeature
Thread#0:T:Chrome driver is intialized 
Thread#0:T:BeforeTestRun
Thread#0:B:Given We are at the Sign In Page
Thread#0:T:BeforeStep
Thread#0:T:Open Url https://testc.eclinicalsol.com
Thread#0:T:done: CommonScenariosSteps.GivenWeAreAtTheSignInPage() (8.5s)
Thread#0:B:And I login "AutoTesting", "Auto@403" and "SmokeTest, Auto"
Thread#0:T:BeforeStep
Thread#0:T:waitforElementPresent function - Element is present : By.Id: UserName
Thread#0:T:ClearText action perform on element ID^UserName
Thread#0:T:waitforElementPresent function - Element is present : By.Id: UserName
Thread#0:T:waitforElementPresent function - Element is present : By.Id: Password
Thread#0:T:ClearText action perform on element ID^Password
Thread#0:T:waitforElementPresent function - Element is present : By.Id: Password
Thread#0:T:waitforElementPresent function - Element is present : By.Id: logon-submit
Thread#0:T:CLick action perform on element ID^logon-submit
Thread#0:T:Open Url https://testc.eclinicalsol.com
Thread#0:T:waitforElementPresent function - Element is present : By.XPath: //Ul[@class='nav navbar-nav navbar-right']/li[1]
Thread#0:T:GetAttributeValue of element XPATH^//Ul[@class='nav navbar-nav navbar-right']/li[1]
Thread#0:T:VerifyAttributeValue on element XPATH^//Ul[@class='nav navbar-nav navbar-right']/li[1] : Expected value =SmokeTest, Auto Actual value =SmokeTest, Auto
Thread#0:T:done: CommonScenariosSteps.GivenILoginAnd("AutoTesting", "Auto@403", "SmokeTest, Auto") (4.9s)
Thread#0:B:Given I choose "AutoStudy" Study from studies list.
Thread#0:T:BeforeStep
Thread#0:T:waitforElementPresent function - Element is present : By.XPath: //div[@title='Tile View']
Thread#0:T:CLick action perform on element XPATH^//div[@title='Tile View']
Thread#0:T:waitforElementPresent function - Element is present : By.Id: search
Thread#0:T:ClearText action perform on element ID^search
Thread#0:T:waitforElementPresent function - Element is present : By.Id: search
Thread#0:T:waitforElementPresent function - Element is present : By.XPath: //button[@type='submit']
Thread#0:T:CLick action perform on element XPATH^//button[@type='submit']
Thread#0:T:VerifyElementPresent function executed successfully : XPATH^//div[@id='#snapgridtileview']/div[1]//h1/a[contains(text(),'AutoStudy')]
Thread#0:T:waitforElementPresent function - Element is present : By.XPath: //div[@id='#snapgridtileview']/div[1]//h1/a[contains(text(),'AutoStudy')]
Thread#0:T:CLick action perform on element XPATH^//div[@id='#snapgridtileview']/div[1]//h1/a[contains(text(),'AutoStudy')]
Thread#0:T:done: MapperSteps.GivenIChooseStudyFromStudiesList_("AutoStudy") (11.9s)
Thread#0:B:Given Go to Snapshot tab
Thread#0:T:BeforeStep
Thread#0:T:waitforElementPresent function - Element is present : By.XPath: //a[@data-name='snapshot']
Thread#0:T:CLick action perform on element XPATH^//a[@data-name='snapshot']
Thread#0:T:VerifyElementPresent function executed successfully : XPATH^//h2[text()='Snapshots']
Thread#0:T:Navigation to Snapshot page successful
Thread#0:T:done: SnapshotSteps.GivenGoToSnapshotTab() (3.2s)
Thread#0:B:Then create new Snapshot
Thread#0:T:BeforeStep
Thread#0:T:waitforElementPresent function - Element is present : By.Id: snapshot-new
Thread#0:T:CLick action perform on element ID^snapshot-new
Thread#0:T:waitforElementPresent function - Element is present : By.Id: basic-input-title
Thread#0:T:ClearText action perform on element ID^basic-input-title
Thread#0:T:waitforElementPresent function - Element is present : By.Id: basic-input-title
Thread#0:T:waitforElementPresent function - Element is present : By.Id: basic-input-description
Thread#0:T:ClearText action perform on element ID^basic-input-description
Thread#0:T:waitforElementPresent function - Element is present : By.Id: basic-input-description
Thread#0:T:waitforElementPresent function - Element is present : By.Id: snapshot-add-save
Thread#0:T:CLick action perform on element ID^snapshot-add-save
Thread#0:T:VerifyElementPresent function failed due to  : XPATH^//span[@class='ng-binding text-success']
Thread#0:T:error: Invalid Element Locator type : By.XPath: //span[@class='ng-binding text-success']
Thread#0:Scheduler: get next test for thread 0
Thread#:Scheduler: at the end of normal test queue
Thread#0:Scheduler: enumerator for thread is at end
Thread#0:Scheduler: No more tests for thread
Thread#0:T:AfterFeature
Thread#0:T:AfterTestRun
Thread#0: Test #61/0 is finished on thread #0 as Failed within 103.499174 seconds
Appdomain Disposed
Thread#-1:Scheduler: get next test for thread -1
Thread#:Scheduler: at the end of normal test queue
Thread#-1:Scheduler: enumerator for thread is at end
Total: 1
Succeeded: 0
Ignored: 0
Pending: 0
Skipped: 0
Failed: 1
